fpga_firmware/myhdl_dev/src/bluejay_datapath_tb.1592442056.43.vcd
$date
    Thu Jun 18 02:00:55 2020
$end
$version
    MyHDL 0.11
$end
$timescale
    1ns
$end

$scope module bluejay_datapath_tb $end
$var reg 1 ! dc32_fifo_empty $end
$var reg 1 " reset_per_frame $end
$var reg 1 # buffer_switch_done $end
$var reg 1 $ ftdi_clk $end
$var reg 1 % reset_all $end
$var reg 1 & SIM_BUFFER_SWITCH $end
$var reg 1 ' FT_RD $end
$var reg 1 ( fpga_clk $end
$scope module bluejay_datapath_clkGen0 $end
$var reg 1 $ ftdi_clk $end
$var reg 1 ( fpga_clk $end
$upscope $end
$scope module mock_ft6010 $end
$var reg 1 ) WR_N $end
$var reg 1 $ CLK $end
$var real 1 * DATA $end
$var reg 1 + TXE_N $end
$var real 1 , skip_every_41st_byte $end
$var reg 1 ' RD_N $end
$var reg 1 - RESET_N $end
$var reg 1 . SIM_DATA_IN_WR $end
$var real 1 / SIM_DATA_IN $end
$var reg 1 & SIM_BUFFER_SWITCH $end
$var reg 1 0 RX_F $end
$var reg 1 1 OE_N $end
$upscope $end
$scope module usb3_if0 $end
$var reg 1 2 dc32_fifo_empty_latched $end
$var real 1 3 STATE_DEBUG_B0 $end
$var real 1 * usb3_data_in $end
$var reg 1 4 dc32_fifo_almost_full $end
$var reg 1 5 reset_per_frame_latched $end
$var real 1 6 dc32_fifo_data_in $end
$var reg 1 ! dc32_fifo_empty $end
$var string 4 7 state $end
$var reg 1 8 buffer_switch_done_latched $end
$var reg 11 9 num_lines_clocked_out $end
$var reg 1 1 FT_OE $end
$var reg 1 # buffer_switch_done $end
$var reg 4 : state_timeout_counter $end
$var reg 1 ; write_to_dc32_fifo_latched $end
$var reg 1 $ ftdi_clk $end
$var reg 32 < dc32_fifo_data_in_latched $end
$var reg 1 " reset_per_frame $end
$var reg 1 = write_to_dc32_fifo $end
$var reg 1 ( fpga_clk $end
$var reg 1 ' FT_RD $end
$var reg 1 0 FR_RXF $end
$upscope $end
$scope module mock_dc32_fifo0 $end
$var reg 1 " reset $end
$var reg 1 4 dc32_fifo_almost_full $end
$var reg 1 > get_next_word $end
$var reg 1 ? dc32_fifo_almost_empty $end
$var reg 1 ! dc32_fifo_empty $end
$var real 1 6 dc32_fifo_data_in $end
$var real 1 @ num_words_in_buffer $end
$var reg 1 = write_to_dc32_fifo $end
$var reg 1 $ ftdi_clk $end
$var real 1 A dc32_fifo_data_out $end
$var real 1 B reset_rp $end
$var reg 1 ( fpga_clk $end
$upscope $end
$scope module timing_controller0 $end
$var reg 1 4 dc32_fifo_almost_full $end
$var reg 1 C invert $end
$var reg 1 D update $end
$var reg 1 E line_of_data_available $end
$var reg 1 % reset_all $end
$var string 4 F state $end
$var reg 32 G state_timeout_counter $end
$var reg 1 # buffer_switch_done $end
$var reg 1 $ ftdi_clk $end
$var reg 1 " reset_per_frame $end
$var reg 1 ( fpga_clk $end
$upscope $end
$scope module bluejay_data0 $end
$var reg 1 H valid $end
$var string 4 I state $end
$var reg 1 J end_of_image_reached $end
$var reg 11 K v_counter $end
$var reg 1 ? dc32_fifo_almost_empty $end
$var reg 1 L sync $end
$var reg 32 M bluejay_data_out $end
$var reg 1 E line_of_data_available $end
$var reg 1 # buffer_switch_done $end
$var reg 8 N state_timeout_counter $end
$var reg 1 > get_next_word $end
$var real 1 A fifo_data_out $end
$var reg 1 ( fpga_clk $end
$upscope $end
$upscope $end

$enddefinitions $end
$dumpvars
0!
0"
0#
0$
0%
0&
1'
0(
1)
s0 *
1+
s0 ,
1-
0.
s0 /
10
11
02
s0 3
04
05
s0 6
sWAITING_FOR_BUFFER_SWITCH 7
08
b00000000000 9
b0000 :
0;
b00000000000000000000000000000000 <
0=
0>
0?
s0 @
s0 A
s0 B
0C
0D
0E
sINITING F
b00000000000000000000000000000000 G
0H
sIDLE I
0J
b00000000000 K
0L
b00000000000000000000000000000000 M
b00000000 N
$end
#7
1$
s1 3
#8
1(
1?
1!
sRESET_PULSE F
b00000000000000000000000000000101 G
#14
0$
#16
0(
#21
1$
#24
1(
1%
b00000000000000000000000000000100 G
12
#28
0$
#32
0(
#35
1$
#40
1(
b00000000000000000000000000000011 G
#42
0$
#48
0(
#49
1$
#56
0$
1(
b00000000000000000000000000000010 G
#63
1$
#64
0(
#70
0$
#72
1(
b00000000000000000000000000000001 G
#77
1$
#80
0(
#84
0$
#88
1(
b00000000000000000000101111101100 G
sINVERT_TO_BUFSWITCH_BLANKING F
#91
1$
#96
0(
#98
0$
#104
1(
0%
b00000000000000000000101111101011 G
#105
1$
#112
0$
0(
#119
1$
#120
1(
b00000000000000000000101111101010 G
#126
0$
#128
0(
#133
1$
#136
1(
b00000000000000000000101111101001 G
#140
0$
#144
0(
#147
1$
#152
1(
b00000000000000000000101111101000 G
#154
0$
#160
0(
#161
1$
#168
0$
1(
b00000000000000000000101111100111 G
#175
1$
#176
0(
#182
0$
#184
1(
b00000000000000000000101111100110 G
#189
1$
#192
0(
#196
0$
#200
1(
b00000000000000000000101111100101 G
#203
1$
#208
0(
#210
0$
#216
1(
b00000000000000000000101111100100 G
#217
1$
#224
0$
0(
#231
1$
#232
1(
b00000000000000000000101111100011 G
#238
0$
#240
0(
#245
1$
#248
1(
b00000000000000000000101111100010 G
#252
0$
#256
0(
#259
1$
#264
1(
b00000000000000000000101111100001 G
#266
0$
#272
0(
#273
1$
#280
0$
1(
b00000000000000000000101111100000 G
#287
1$
#288
0(
#294
0$
#296
1(
b00000000000000000000101111011111 G
#301
1$
#304
0(
#308
0$
#312
1(
b00000000000000000000101111011110 G
#315
1$
#320
0(
#322
0$
#328
1(
b00000000000000000000101111011101 G
#329
1$
#336
0$
0(
#343
1$
#344
1(
b00000000000000000000101111011100 G
#350
0$
#352
0(
#357
1$
#360
1(
b00000000000000000000101111011011 G
#364
0$
#368
0(
#371
1$
#376
1(
b00000000000000000000101111011010 G
#378
0$
#384
0(
#385
1$
#392
0$
1(
b00000000000000000000101111011001 G
#399
1$
#400
0(
#406
0$
#408
1(
b00000000000000000000101111011000 G
#413
1$
#416
0(
#420
0$
#424
1(
b00000000000000000000101111010111 G
#427
1$
#432
0(
#434
0$
#440
1(
b00000000000000000000101111010110 G
#441
1$
#448
0$
0(
#455
1$
#456
1(
b00000000000000000000101111010101 G
#462
0$
#464
0(
#469
1$
#472
1(
b00000000000000000000101111010100 G
#476
0$
#480
0(
#483
1$
#488
1(
b00000000000000000000101111010011 G
#490
0$
#496
0(
#497
1$
#504
0$
1(
b00000000000000000000101111010010 G
#511
1$
#512
0(
#518
0$
#520
1(
b00000000000000000000101111010001 G
#525
1$
#528
0(
#532
0$
#536
1(
b00000000000000000000101111010000 G
#539
1$
#544
0(
#546
0$
#552
1(
b00000000000000000000101111001111 G
#553
1$
#560
0$
0(
#567
1$
#568
1(
b00000000000000000000101111001110 G
#574
0$
#576
0(
#581
1$
#584
1(
b00000000000000000000101111001101 G
#588
0$
#592
0(
#595
1$
#600
1(
b00000000000000000000101111001100 G
#602
0$
#608
0(
#609
1$
#616
0$
1(
b00000000000000000000101111001011 G
#623
1$
#624
0(
#630
0$
#632
1(
b00000000000000000000101111001010 G
#637
1$
#640
0(
#644
0$
#648
1(
b00000000000000000000101111001001 G
#651
1$
#656
0(
#658
0$
#664
1(
b00000000000000000000101111001000 G
#665
1$
#672
0$
0(
#679
1$
#680
1(
b00000000000000000000101111000111 G
#686
0$
#688
0(
#693
1$
#696
1(
b00000000000000000000101111000110 G
#700
0$
#704
0(
#707
1$
#712
1(
b00000000000000000000101111000101 G
#714
0$
#720
0(
#721
1$
#728
0$
1(
b00000000000000000000101111000100 G
#735
1$
#736
0(
#742
0$
#744
1(
b00000000000000000000101111000011 G
#749
1$
#752
0(
#756
0$
#760
1(
b00000000000000000000101111000010 G
#763
1$
#768
0(
#770
0$
#776
1(
b00000000000000000000101111000001 G
#777
1$
#784
0$
0(
#791
1$
#792
1(
b00000000000000000000101111000000 G
#798
0$
#800
0(
#805
1$
#808
1(
b00000000000000000000101110111111 G
#812
0$
#816
0(
#819
1$
#824
1(
b00000000000000000000101110111110 G
#826
0$
#832
0(
#833
1$
#840
0$
1(
b00000000000000000000101110111101 G
#847
1$
#848
0(
#854
0$
#856
1(
b00000000000000000000101110111100 G
#861
1$
#864
0(
#868
0$
#872
1(
b00000000000000000000101110111011 G
#875
1$
#880
0(
#882
0$
#888
1(
b00000000000000000000101110111010 G
#889
1$
#896
0$
0(
#903
1$
#904
1(
b00000000000000000000101110111001 G
#910
0$
#912
0(
#917
1$
#920
1(
b00000000000000000000101110111000 G
#924
0$
#928
0(
#931
1$
#936
1(
b00000000000000000000101110110111 G
#938
0$
#944
0(
#945
1$
#952
0$
1(
b00000000000000000000101110110110 G
#959
1$
#960
0(
#966
0$
#968
1(
b00000000000000000000101110110101 G
#973
1$
#976
0(
#980
0$
#984
1(
b00000000000000000000101110110100 G
#987
1$
#992
0(
#994
0$
#1000
1(
b00000000000000000000101110110011 G
#1001
1$
#1008
0$
0(
#1015
1$
#1016
1(
b00000000000000000000101110110010 G
#1022
0$
#1024
0(
#1029
1$
#1032
1(
b00000000000000000000101110110001 G
#1036
0$
#1040
0(
#1043
1$
#1048
1(
b00000000000000000000101110110000 G
#1050
0$
#1056
0(
#1057
1$
#1064
0$
1(
b00000000000000000000101110101111 G
#1071
1$
#1072
0(
#1078
0$
#1080
1(
b00000000000000000000101110101110 G
#1085
1$
#1088
0(
#1092
0$
#1096
1(
b00000000000000000000101110101101 G
#1099
1$
#1104
0(
#1106
0$
#1112
1(
b00000000000000000000101110101100 G
#1113
1$
#1120
0$
0(
#1127
1$
#1128
1(
b00000000000000000000101110101011 G
#1134
0$
#1136
0(
#1141
1$
#1144
1(
b00000000000000000000101110101010 G
#1148
0$
#1152
0(
#1155
1$
#1160
1(
b00000000000000000000101110101001 G
#1162
0$
#1168
0(
#1169
1$
#1176
0$
1(
b00000000000000000000101110101000 G
#1183
1$
#1184
0(
#1190
0$
#1192
1(
b00000000000000000000101110100111 G
#1197
1$
#1200
0(
#1204
0$
#1208
1(
b00000000000000000000101110100110 G
#1211
1$
#1216
0(
#1218
0$
#1224
1(
b00000000000000000000101110100101 G
#1225
1$
#1232
0$
0(
#1239
1$
#1240
1(
b00000000000000000000101110100100 G
#1246
0$
#1248
0(
#1253
1$
#1256
1(
b00000000000000000000101110100011 G
#1260
0$
#1264
0(
#1267
1$
#1272
1(
b00000000000000000000101110100010 G
#1274
0$
#1280
0(
#1281
1$
#1288
0$
1(
b00000000000000000000101110100001 G
#1295
1$
#1296
0(
#1302
0$
#1304
1(
b00000000000000000000101110100000 G
#1309
1$
#1312
0(
#1316
0$
#1320
1(
b00000000000000000000101110011111 G
#1323
1$
#1328
0(
#1330
0$
#1336
1(
b00000000000000000000101110011110 G
#1337
1$
#1344
0$
0(
#1351
1$
#1352
1(
b00000000000000000000101110011101 G
#1358
0$
#1360
0(
#1365
1$
#1368
1(
b00000000000000000000101110011100 G
#1372
0$
#1376
0(
#1379
1$
#1384
1(
b00000000000000000000101110011011 G
#1386
0$
#1392
0(
#1393
1$
#1400
0$
1(
b00000000000000000000101110011010 G
#1407
1$
#1408
0(
#1414
0$
#1416
1(
b00000000000000000000101110011001 G
#1421
1$
#1424
0(
#1428
0$
#1432
1(
b00000000000000000000101110011000 G
#1435
1$
#1440
0(
#1442
0$
#1448
1(
b00000000000000000000101110010111 G
#1449
1$
#1456
0$
0(
#1463
1$
#1464
1(
b00000000000000000000101110010110 G
#1470
0$
#1472
0(
#1477
1$
#1480
1(
b00000000000000000000101110010101 G
#1484
0$
#1488
0(
#1491
1$
#1496
1(
b00000000000000000000101110010100 G
#1498
0$
#1504
0(
#1505
1$
#1512
0$
1(
b00000000000000000000101110010011 G
#1519
1$
#1520
0(
#1526
0$
#1528
1(
b00000000000000000000101110010010 G
#1533
1$
#1536
0(
#1540
0$
#1544
1(
b00000000000000000000101110010001 G
#1547
1$
#1552
0(
#1554
0$
#1560
1(
b00000000000000000000101110010000 G
#1561
1$
#1568
0$
0(
#1575
1$
#1576
1(
b00000000000000000000101110001111 G
#1582
0$
#1584
0(
#1589
1$
#1592
1(
b00000000000000000000101110001110 G
#1596
0$
#1600
0(
#1603
1$
#1608
1(
b00000000000000000000101110001101 G
#1610
0$
#1616
0(
#1617
1$
#1624
0$
1(
b00000000000000000000101110001100 G
#1631
1$
#1632
0(
#1638
0$
#1640
1(
b00000000000000000000101110001011 G
#1645
1$
#1648
0(
#1652
0$
#1656
1(
b00000000000000000000101110001010 G
#1659
1$
#1664
0(
#1666
0$
#1672
1(
b00000000000000000000101110001001 G
#1673
1$
#1680
0$
0(
#1687
1$
#1688
1(
b00000000000000000000101110001000 G
#1694
0$
#1696
0(
#1701
1$
#1704
1(
b00000000000000000000101110000111 G
#1708
0$
#1712
0(
#1715
1$
#1720
1(
b00000000000000000000101110000110 G
#1722
0$
#1728
0(
#1729
1$
#1736
0$
1(
b00000000000000000000101110000101 G
#1743
1$
#1744
0(
#1750
0$
#1752
1(
b00000000000000000000101110000100 G
#1757
1$
#1760
0(
#1764
0$
#1768
1(
b00000000000000000000101110000011 G
#1771
1$
#1776
0(
#1778
0$
#1784
1(
b00000000000000000000101110000010 G
#1785
1$
#1792
0$
0(
#1799
1$
#1800
1(
b00000000000000000000101110000001 G
#1806
0$
#1808
0(
#1813
1$
#1816
1(
b00000000000000000000101110000000 G
#1820
0$
#1824
0(
#1827
1$
#1832
1(
b00000000000000000000101101111111 G
#1834
0$
#1840
0(
#1841
1$
#1848
0$
1(
b00000000000000000000101101111110 G
#1855
1$
#1856
0(
#1862
0$
#1864
1(
b00000000000000000000101101111101 G
#1869
1$
#1872
0(
#1876
0$
#1880
1(
b00000000000000000000101101111100 G
#1883
1$
#1888
0(
#1890
0$
#1896
1(
b00000000000000000000101101111011 G
#1897
1$
#1904
0$
0(
#1911
1$
#1912
1(
b00000000000000000000101101111010 G
#1918
0$
#1920
0(
#1925
1$
#1928
1(
b00000000000000000000101101111001 G
#1932
0$
#1936
0(
#1939
1$
#1944
1(
b00000000000000000000101101111000 G
#1946
0$
#1952
0(
#1953
1$
#1960
0$
1(
b00000000000000000000101101110111 G
#1967
1$
#1968
0(
#1974
0$
#1976
1(
b00000000000000000000101101110110 G
#1981
1$
#1984
0(
#1988
0$
#1992
1(
b00000000000000000000101101110101 G
#1995
1$
#2000
0(
#2002
0$
#2008
1(
b00000000000000000000101101110100 G
#2009
1$
#2016
0$
0(
#2023
1$
#2024
1(
b00000000000000000000101101110011 G
#2030
0$
#2032
0(
#2037
1$
#2040
1(
b00000000000000000000101101110010 G
#2044
0$
#2048
0(
#2051
1$
#2056
1(
b00000000000000000000101101110001 G
#2058
0$
#2064
0(
#2065
1$
#2072
0$
1(
b00000000000000000000101101110000 G
#2079
1$
#2080
0(
#2086
0$
#2088
1(
b00000000000000000000101101101111 G
#2093
1$
#2096
0(
#2100
0$
#2104
1(
b00000000000000000000101101101110 G
#2107
1$
#2112
0(
#2114
0$
#2120
1(
b00000000000000000000101101101101 G
#2121
1$
#2128
0$
0(
#2135
1$
#2136
1(
b00000000000000000000101101101100 G
#2142
0$
#2144
0(
#2149
1$
#2152
1(
b00000000000000000000101101101011 G
#2156
0$
#2160
0(
#2163
1$
#2168
1(
b00000000000000000000101101101010 G
#2170
0$
#2176
0(
#2177
1$
#2184
0$
1(
b00000000000000000000101101101001 G
#2191
1$
#2192
0(
#2198
0$
#2200
1(
b00000000000000000000101101101000 G
#2205
1$
#2208
0(
#2212
0$
#2216
1(
b00000000000000000000101101100111 G
#2219
1$
#2224
0(
#2226
0$
#2232
1(
b00000000000000000000101101100110 G
#2233
1$
#2240
0$
0(
#2247
1$
#2248
1(
b00000000000000000000101101100101 G
#2254
0$
#2256
0(
#2261
1$
#2264
1(
b00000000000000000000101101100100 G
#2268
0$
#2272
0(
#2275
1$
#2280
1(
b00000000000000000000101101100011 G
#2282
0$
#2288
0(
#2289
1$
#2296
0$
1(
b00000000000000000000101101100010 G
#2303
1$
#2304
0(
#2310
0$
#2312
1(
b00000000000000000000101101100001 G
#2317
1$
#2320
0(
#2324
0$
#2328
1(
b00000000000000000000101101100000 G
#2331
1$
#2336
0(
#2338
0$
#2344
1(
b00000000000000000000101101011111 G
#2345
1$
#2352
0$
0(
#2359
1$
#2360
1(
b00000000000000000000101101011110 G
#2366
0$
#2368
0(
#2373
1$
#2376
1(
b00000000000000000000101101011101 G
#2380
0$
#2384
0(
#2387
1$
#2392
1(
b00000000000000000000101101011100 G
#2394
0$
#2400
0(
#2401
1$
#2408
0$
1(
b00000000000000000000101101011011 G
#2415
1$
#2416
0(
#2422
0$
#2424
1(
b00000000000000000000101101011010 G
#2429
1$
#2432
0(
#2436
0$
#2440
1(
b00000000000000000000101101011001 G
#2443
1$
#2448
0(
#2450
0$
#2456
1(
b00000000000000000000101101011000 G
#2457
1$
#2464
0$
0(
#2471
1$
#2472
1(
b00000000000000000000101101010111 G
#2478
0$
#2480
0(
#2485
1$
#2488
1(
b00000000000000000000101101010110 G
#2492
0$
#2496
0(
#2499
1$
#2504
1(
b00000000000000000000101101010101 G
#2506
0$
#2512
0(
#2513
1$
#2520
0$
1(
b00000000000000000000101101010100 G
#2527
1$
#2528
0(
#2534
0$
#2536
1(
b00000000000000000000101101010011 G
#2541
1$
#2544
0(
#2548
0$
#2552
1(
b00000000000000000000101101010010 G
#2555
1$
#2560
0(
#2562
0$
#2568
1(
b00000000000000000000101101010001 G
#2569
1$
#2576
0$
0(
#2583
1$
#2584
1(
b00000000000000000000101101010000 G
#2590
0$
#2592
0(
#2597
1$
#2600
1(
b00000000000000000000101101001111 G
#2604
0$
#2608
0(
#2611
1$
#2616
1(
b00000000000000000000101101001110 G
#2618
0$
#2624
0(
#2625
1$
#2632
0$
1(
b00000000000000000000101101001101 G
#2639
1$
#2640
0(
#2646
0$
#2648
1(
b00000000000000000000101101001100 G
#2653
1$
#2656
0(
#2660
0$
#2664
1(
b00000000000000000000101101001011 G
#2667
1$
#2672
0(
#2674
0$
#2680
1(
b00000000000000000000101101001010 G
#2681
1$
#2688
0$
0(
#2695
1$
#2696
1(
b00000000000000000000101101001001 G
#2702
0$
#2704
0(
#2709
1$
#2712
1(
b00000000000000000000101101001000 G
#2716
0$
#2720
0(
#2723
1$
#2728
1(
b00000000000000000000101101000111 G
#2730
0$
#2736
0(
#2737
1$
#2744
0$
1(
b00000000000000000000101101000110 G
#2751
1$
#2752
0(
#2758
0$
#2760
1(
b00000000000000000000101101000101 G
#2765
1$
#2768
0(
#2772
0$
#2776
1(
b00000000000000000000101101000100 G
#2779
1$
#2784
0(
#2786
0$
#2792
1(
b00000000000000000000101101000011 G
#2793
1$
#2800
0$
0(
#2807
1$
#2808
1(
b00000000000000000000101101000010 G
#2814
0$
#2816
0(
#2821
1$
#2824
1(
b00000000000000000000101101000001 G
#2828
0$
#2832
0(
#2835
1$
#2840
1(
b00000000000000000000101101000000 G
#2842
0$
#2848
0(
#2849
1$
#2856
0$
1(
b00000000000000000000101100111111 G
#2863
1$
#2864
0(
#2870
0$
#2872
1(
b00000000000000000000101100111110 G
#2877
1$
#2880
0(
#2884
0$
#2888
1(
b00000000000000000000101100111101 G
#2891
1$
#2896
0(
#2898
0$
#2904
1(
b00000000000000000000101100111100 G
#2905
1$
#2912
0$
0(
#2919
1$
#2920
1(
b00000000000000000000101100111011 G
#2926
0$
#2928
0(
#2933
1$
#2936
1(
b00000000000000000000101100111010 G
#2940
0$
#2944
0(
#2947
1$
#2952
1(
b00000000000000000000101100111001 G
#2954
0$
#2960
0(
#2961
1$
#2968
0$
1(
b00000000000000000000101100111000 G
#2975
1$
#2976
0(
#2982
0$
#2984
1(
b00000000000000000000101100110111 G
#2989
1$
#2992
0(
#2996
0$
#3000
1(
b00000000000000000000101100110110 G
#3003
1$
#3008
0(
#3010
0$
#3016
1(
b00000000000000000000101100110101 G
#3017
1$
#3024
0$
0(
#3031
1$
#3032
1(
b00000000000000000000101100110100 G
#3038
0$
#3040
0(
#3045
1$
#3048
1(
b00000000000000000000101100110011 G
#3052
0$
#3056
0(
#3059
1$
#3064
1(
b00000000000000000000101100110010 G
#3066
0$
#3072
0(
#3073
1$
#3080
0$
1(
b00000000000000000000101100110001 G
#3087
1$
#3088
0(
#3094
0$
#3096
1(
b00000000000000000000101100110000 G
#3101
1$
#3104
0(
#3108
0$
#3112
1(
b00000000000000000000101100101111 G
#3115
1$
#3120
0(
#3122
0$
#3128
1(
b00000000000000000000101100101110 G
#3129
1$
#3136
0$
0(
#3143
1$
#3144
1(
b00000000000000000000101100101101 G
#3150
0$
#3152
0(
#3157
1$
#3160
1(
b00000000000000000000101100101100 G
#3164
0$
#3168
0(
#3171
1$
#3176
1(
b00000000000000000000101100101011 G
#3178
0$
#3184
0(
#3185
1$
#3192
0$
1(
b00000000000000000000101100101010 G
#3199
1$
#3200
0(
#3206
0$
#3208
1(
b00000000000000000000101100101001 G
#3213
1$
#3216
0(
#3220
0$
#3224
1(
b00000000000000000000101100101000 G
#3227
1$
#3232
0(
#3234
0$
#3240
1(
b00000000000000000000101100100111 G
#3241
1$
#3248
0$
0(
#3255
1$
#3256
1(
b00000000000000000000101100100110 G
#3262
0$
#3264
0(
#3269
1$
#3272
1(
b00000000000000000000101100100101 G
#3276
0$
#3280
0(
#3283
1$
#3288
1(
b00000000000000000000101100100100 G
#3290
0$
#3296
0(
#3297
1$
#3304
0$
1(
b00000000000000000000101100100011 G
#3311
1$
#3312
0(
#3318
0$
#3320
1(
b00000000000000000000101100100010 G
#3325
1$
#3328
0(
#3332
0$
#3336
1(
b00000000000000000000101100100001 G
#3339
1$
#3344
0(
#3346
0$
#3352
1(
b00000000000000000000101100100000 G
#3353
1$
#3360
0$
0(
#3367
1$
#3368
1(
b00000000000000000000101100011111 G
#3374
0$
#3376
0(
#3381
1$
#3384
1(
b00000000000000000000101100011110 G
#3388
0$
#3392
0(
#3395
1$
#3400
1(
b00000000000000000000101100011101 G
#3402
0$
#3408
0(
#3409
1$
#3416
0$
1(
b00000000000000000000101100011100 G
#3423
1$
#3424
0(
#3430
0$
#3432
1(
b00000000000000000000101100011011 G
#3437
1$
#3440
0(
#3444
0$
#3448
1(
b00000000000000000000101100011010 G
#3451
1$
#3456
0(
#3458
0$
#3464
1(
b00000000000000000000101100011001 G
#3465
1$
#3472
0$
0(
#3479
1$
#3480
1(
b00000000000000000000101100011000 G
#3486
0$
#3488
0(
#3493
1$
#3496
1(
b00000000000000000000101100010111 G
#3500
0$
#3504
0(
#3507
1$
#3512
1(
b00000000000000000000101100010110 G
#3514
0$
#3520
0(
#3521
1$
#3528
0$
1(
b00000000000000000000101100010101 G
#3535
1$
#3536
0(
#3542
0$
#3544
1(
b00000000000000000000101100010100 G
#3549
1$
#3552
0(
#3556
0$
#3560
1(
b00000000000000000000101100010011 G
#3563
1$
#3568
0(
#3570
0$
#3576
1(
b00000000000000000000101100010010 G
#3577
1$
#3584
0$
0(
#3591
1$
#3592
1(
b00000000000000000000101100010001 G
#3598
0$
#3600
0(
#3605
1$
#3608
1(
b00000000000000000000101100010000 G
#3612
0$
#3616
0(
#3619
1$
#3624
1(
b00000000000000000000101100001111 G
#3626
0$
#3632
0(
#3633
1$
#3640
0$
1(
b00000000000000000000101100001110 G
#3647
1$
#3648
0(
#3654
0$
#3656
1(
b00000000000000000000101100001101 G
#3661
1$
#3664
0(
#3668
0$
#3672
1(
b00000000000000000000101100001100 G
#3675
1$
#3680
0(
#3682
0$
#3688
1(
b00000000000000000000101100001011 G
#3689
1$
#3696
0$
0(
#3703
1$
#3704
1(
b00000000000000000000101100001010 G
#3710
0$
#3712
0(
#3717
1$
#3720
1(
b00000000000000000000101100001001 G
#3724
0$
#3728
0(
#3731
1$
#3736
1(
b00000000000000000000101100001000 G
#3738
0$
#3744
0(
#3745
1$
#3752
0$
1(
b00000000000000000000101100000111 G
#3759
1$
#3760
0(
#3766
0$
#3768
1(
b00000000000000000000101100000110 G
#3773
1$
#3776
0(
#3780
0$
#3784
1(
b00000000000000000000101100000101 G
#3787
1$
#3792
0(
#3794
0$
#3800
1(
b00000000000000000000101100000100 G
#3801
1$
#3808
0$
0(
#3815
1$
#3816
1(
b00000000000000000000101100000011 G
#3822
0$
#3824
0(
#3829
1$
#3832
1(
b00000000000000000000101100000010 G
#3836
0$
#3840
0(
#3843
1$
#3848
1(
b00000000000000000000101100000001 G
#3850
0$
#3856
0(
#3857
1$
#3864
0$
1(
b00000000000000000000101100000000 G
#3871
1$
#3872
0(
#3878
0$
#3880
1(
b00000000000000000000101011111111 G
#3885
1$
#3888
0(
#3892
0$
#3896
1(
b00000000000000000000101011111110 G
#3899
1$
#3904
0(
#3906
0$
#3912
1(
b00000000000000000000101011111101 G
#3913
1$
#3920
0$
0(
#3927
1$
#3928
1(
b00000000000000000000101011111100 G
#3934
0$
#3936
0(
#3941
1$
#3944
1(
b00000000000000000000101011111011 G
#3948
0$
#3952
0(
#3955
1$
#3960
1(
b00000000000000000000101011111010 G
#3962
0$
#3968
0(
#3969
1$
#3976
0$
1(
b00000000000000000000101011111001 G
#3983
1$
#3984
0(
#3990
0$
#3992
1(
b00000000000000000000101011111000 G
#3997
1$
#4000
0(
#4004
0$
#4008
1(
b00000000000000000000101011110111 G
#4011
1$
#4016
0(
#4018
0$
#4024
1(
b00000000000000000000101011110110 G
#4025
1$
#4032
0$
0(
#4039
1$
#4040
1(
b00000000000000000000101011110101 G
#4046
0$
#4048
0(
#4053
1$
#4056
1(
b00000000000000000000101011110100 G
#4060
0$
#4064
0(
#4067
1$
#4072
1(
b00000000000000000000101011110011 G
#4074
0$
#4080
0(
#4081
1$
#4088
0$
1(
b00000000000000000000101011110010 G
#4095
1$
#4096
0(
#4102
0$
#4104
1(
b00000000000000000000101011110001 G
#4109
1$
#4112
0(
#4116
0$
#4120
1(
b00000000000000000000101011110000 G
#4123
1$
#4128
0(
#4130
0$
#4136
1(
b00000000000000000000101011101111 G
#4137
1$
#4144
0$
0(
#4151
1$
#4152
1(
b00000000000000000000101011101110 G
#4158
0$
#4160
0(
#4165
1$
#4168
1(
b00000000000000000000101011101101 G
#4172
0$
#4176
0(
#4179
1$
#4184
1(
b00000000000000000000101011101100 G
#4186
0$
#4192
0(
#4193
1$
#4200
0$
1(
b00000000000000000000101011101011 G
#4207
1$
#4208
0(
#4214
0$
#4216
1(
b00000000000000000000101011101010 G
#4221
1$
#4224
0(
#4228
0$
#4232
1(
b00000000000000000000101011101001 G
#4235
1$
#4240
0(
#4242
0$
#4248
1(
b00000000000000000000101011101000 G
#4249
1$
#4256
0$
0(
#4263
1$
#4264
1(
b00000000000000000000101011100111 G
#4270
0$
#4272
0(
#4277
1$
#4280
1(
b00000000000000000000101011100110 G
#4284
0$
#4288
0(
#4291
1$
#4296
1(
b00000000000000000000101011100101 G
#4298
0$
#4304
0(
#4305
1$
#4312
0$
1(
b00000000000000000000101011100100 G
#4319
1$
#4320
0(
#4326
0$
#4328
1(
b00000000000000000000101011100011 G
#4333
1$
#4336
0(
#4340
0$
#4344
1(
b00000000000000000000101011100010 G
#4347
1$
#4352
0(
#4354
0$
#4360
1(
b00000000000000000000101011100001 G
#4361
1$
#4368
0$
0(
#4375
1$
#4376
1(
b00000000000000000000101011100000 G
#4382
0$
#4384
0(
#4389
1$
#4392
1(
b00000000000000000000101011011111 G
#4396
0$
#4400
0(
#4403
1$
#4408
1(
b00000000000000000000101011011110 G
#4410
0$
#4416
0(
#4417
1$
#4424
0$
1(
b00000000000000000000101011011101 G
#4431
1$
#4432
0(
#4438
0$
#4440
1(
b00000000000000000000101011011100 G
#4445
1$
#4448
0(
#4452
0$
#4456
1(
b00000000000000000000101011011011 G
#4459
1$
#4464
0(
#4466
0$
#4472
1(
b00000000000000000000101011011010 G
#4473
1$
#4480
0$
0(
#4487
1$
#4488
1(
b00000000000000000000101011011001 G
#4494
0$
#4496
0(
#4501
1$
#4504
1(
b00000000000000000000101011011000 G
#4508
0$
#4512
0(
#4515
1$
#4520
1(
b00000000000000000000101011010111 G
#4522
0$
#4528
0(
#4529
1$
#4536
0$
1(
b00000000000000000000101011010110 G
#4543
1$
#4544
0(
#4550
0$
#4552
1(
b00000000000000000000101011010101 G
#4557
1$
#4560
0(
#4564
0$
#4568
1(
b00000000000000000000101011010100 G
#4571
1$
#4576
0(
#4578
0$
#4584
1(
b00000000000000000000101011010011 G
#4585
1$
#4592
0$
0(
#4599
1$
#4600
1(
b00000000000000000000101011010010 G
#4606
0$
#4608
0(
#4613
1$
#4616
1(
b00000000000000000000101011010001 G
#4620
0$
#4624
0(
#4627
1$
#4632
1(
b00000000000000000000101011010000 G
#4634
0$
#4640
0(
#4641
1$
#4648
0$
1(
b00000000000000000000101011001111 G
#4655
1$
#4656
0(
#4662
0$
#4664
1(
b00000000000000000000101011001110 G
#4669
1$
#4672
0(
#4676
0$
#4680
1(
b00000000000000000000101011001101 G
#4683
1$
#4688
0(
#4690
0$
#4696
1(
b00000000000000000000101011001100 G
#4697
1$
#4704
0$
0(
#4711
1$
#4712
1(
b00000000000000000000101011001011 G
#4718
0$
#4720
0(
#4725
1$
#4728
1(
b00000000000000000000101011001010 G
#4732
0$
#4736
0(
#4739
1$
#4744
1(
b00000000000000000000101011001001 G
#4746
0$
#4752
0(
#4753
1$
#4760
0$
1(
b00000000000000000000101011001000 G
#4767
1$
#4768
0(
#4774
0$
#4776
1(
b00000000000000000000101011000111 G
#4781
1$
#4784
0(
#4788
0$
#4792
1(
b00000000000000000000101011000110 G
#4795
1$
#4800
0(
#4802
0$
#4808
1(
b00000000000000000000101011000101 G
#4809
1$
#4816
0$
0(
