fpga_firmware/myhdl_dev/sim_mock_ft601_tb.vcd
$date
    Tue Jun 16 16:52:55 2020
$end
$version
    MyHDL 0.11
$end
$timescale
    1ns
$end

$scope module sim_mock_ft601_tb $end
$var reg 1 ! GPIO0 $end
$var reg 1 " GPIO1 $end
$var reg 1 # WR_N $end
$var reg 1 $ CLK $end
$var real 1 % DATA $end
$var reg 1 & TXE_N $end
$var reg 1 ' RD_N $end
$var real 1 ( SIM_DATA_IN $end
$var reg 1 ) SIM_DATA_IN_WR $end
$var reg 1 * RESET_N $end
$var reg 1 + SIM_BUFFER_SWITCH $end
$var reg 1 , RX_F $end
$var reg 1 - OE_N $end
$scope module mock_ft6010 $end
$var reg 1 # WR_N $end
$var reg 1 $ CLK $end
$var real 1 % DATA $end
$var reg 1 & TXE_N $end
$var real 1 . skip_every_41st_byte $end
$var reg 1 ' RD_N $end
$var reg 1 * RESET_N $end
$var reg 1 ) SIM_DATA_IN_WR $end
$var real 1 ( SIM_DATA_IN $end
$var reg 1 + SIM_BUFFER_SWITCH $end
$var reg 1 , RX_F $end
$var reg 1 - OE_N $end
$upscope $end
$upscope $end

$enddefinitions $end
$dumpvars
1!
1"
1#
0$
s0 %
1&
1'
s0 (
0)
1*
0+
1,
1-
s0 .
$end
#5
1$
#10
0$
#15
1$
#20
0$
#25
1$
#30
0$
#35
1$
#40
0$
#45
1$
#50
0$
#55
1$
#60
0$
#65
1$
#70
0$
#75
1$
#80
0$
#85
1$
#90
0$
#95
1$
#100
0$
0!
#105
1$
s268435456 (
1)
#110
0$
#115
1$
s268435457 (
#120
0$
#125
1$
s268435458 (
#130
0$
0,
#135
1$
s268435459 (
#140
0$
#145
1$
s268435460 (
#150
0$
#155
1$
s268435461 (
#160
0$
#165
1$
s268435462 (
#170
0$
#175
1$
s268435463 (
#180
0$
#185
1$
s268435464 (
#190
0$
#195
1$
s268435465 (
#200
0$
#205
1$
s536870912 (
#210
0$
#215
1$
s536870913 (
#220
0$
#225
1$
s536870914 (
#230
0$
#235
1$
s536870915 (
#240
0$
#245
1$
s536870916 (
#250
0$
#255
1$
s536870917 (
#260
0$
#265
1$
s536870918 (
#270
0$
#275
1$
s536870919 (
#280
0$
#285
1$
s536870920 (
#290
0$
#295
1$
s536870921 (
#300
0$
#305
1$
s805306368 (
#310
0$
#315
1$
s805306369 (
#320
0$
#325
1$
s805306370 (
#330
0$
#335
1$
s805306371 (
#340
0$
#345
1$
s805306372 (
#350
0$
#355
1$
s805306373 (
#360
0$
#365
1$
s805306374 (
#370
0$
#375
1$
s805306375 (
#380
0$
#385
1$
s805306376 (
#390
0$
#395
1$
s805306377 (
#400
0$
#405
1$
s1073741824 (
#410
0$
#415
1$
s1073741825 (
#420
0$
#425
1$
s1073741826 (
#430
0$
#435
1$
s1073741827 (
#440
0$
#445
1$
s1073741828 (
#450
0$
#455
1$
s1073741829 (
#460
0$
#465
1$
s1073741830 (
#470
0$
#475
1$
s1073741831 (
#480
0$
#485
1$
s1073741832 (
#490
0$
#495
1$
s1073741833 (
#500
0$
#505
1$
0)
1!
#510
0$
0!
#515
1$
#520
0$
#525
1$
#530
0$
#535
1$
#540
0$
#545
1$
#550
0$
#555
1$
#560
0$
#565
1$
#570
0$
#575
1$
#580
0$
#585
1$
#590
0$
#595
1$
#600
0$
#605
1$
#610
0$
0-
#615
1$
#620
0$
0'
s268435456 %
s1 .
#625
1$
#630
0$
s268435457 %
s2 .
#635
1$
#640
0$
s268435458 %
s3 .
#645
1$
#650
0$
s268435459 %
s4 .
#655
1$
#660
0$
s268435460 %
s5 .
#665
1$
#670
0$
s268435461 %
s6 .
#675
1$
#680
0$
s268435462 %
s7 .
#685
1$
#690
0$
s268435463 %
s8 .
#695
1$
#700
0$
s268435464 %
s9 .
#705
1$
#710
0$
s268435465 %
s10 .
#715
1$
#720
0$
s536870912 %
s11 .
#725
1$
#730
0$
s536870913 %
s12 .
#735
1$
#740
0$
s536870914 %
s13 .
#745
1$
#750
0$
s536870915 %
s14 .
#755
1$
#760
0$
s536870916 %
s15 .
#765
1$
#770
0$
s536870917 %
s16 .
#775
1$
#780
0$
s536870918 %
s17 .
#785
1$
#790
0$
s536870919 %
s18 .
#795
1$
#800
0$
s536870920 %
s19 .
#805
1$
#810
0$
s536870921 %
s20 .
#815
1$
#820
0$
s805306368 %
s21 .
#825
1$
#830
0$
s805306369 %
s22 .
#835
1$
#840
0$
s805306370 %
s23 .
#845
1$
#850
0$
s805306371 %
s24 .
#855
1$
#860
0$
s805306372 %
s25 .
#865
1$
#870
0$
s805306373 %
s26 .
#875
1$
#880
0$
s805306374 %
s27 .
#885
1$
#890
0$
s805306375 %
s28 .
#895
1$
#900
0$
s805306376 %
s29 .
#905
1$
#910
0$
s805306377 %
s30 .
#915
1$
#920
0$
s1073741824 %
s31 .
#925
1$
#930
0$
s1073741825 %
s32 .
#935
1$
#940
0$
s1073741826 %
s33 .
#945
1$
#950
0$
s1073741827 %
s34 .
#955
1$
#960
0$
s1073741828 %
s35 .
#965
1$
#970
0$
s1073741829 %
s36 .
#975
1$
#980
0$
s1073741830 %
s37 .
#985
1$
#990
0$
s1073741831 %
s38 .
#995
1$
#1000
0$
s1073741832 %
s39 .
#1005
1$
#1010
0$
1,
s1073741833 %
s40 .
#1015
1$
#1020
0$
1'
