myhdl_dev/src/bluejay_datapath_tb.vcd
$date
    Mon Apr  6 20:58:56 2020
$end
$version
    MyHDL 0.11
$end
$timescale
    1ns
$end

$scope module bluejay_datapath_tb $end
$var reg 1 ! reset_all $end
$var real 1 " usb3_data_in $end
$var reg 1 # WR_N $end
$var reg 1 $ TXE_N $end
$var reg 1 % clk_100 $end
$var reg 1 & SIM_DATA_IN_WR $end
$var real 1 ' usb_data_o $end
$var reg 1 ( ftdi_clk $end
$var reg 1 ) FT_OE $end
$var reg 1 * RESET_N $end
$var reg 1 + FT_RD $end
$var reg 1 , FR_RXF $end
$scope module usb_fifo0 $end
$var reg 1 # WR_N $end
$var reg 1 ( CLK $end
$var reg 1 $ TXE_N $end
$var reg 1 + RD_N $end
$var reg 1 * RESET_N $end
$var reg 1 & SIM_DATA_IN_WR $end
$var real 1 " SIM_DATA_IN $end
$var real 1 ' DATA $end
$var reg 1 , RX_F $end
$var reg 1 ) OE_N $end
$upscope $end
$scope module usb3_if0 $end
$var real 1 " usb3_data_in $end
$var reg 1 - dc32_fifo_is_full $end
$var reg 1 . RD_N $end
$var real 1 / dc32_fifo_data_in $end
$var reg 1 0 RD_N_r $end
$var reg 1 1 OE_N_r $end
$var reg 1 ( ftdi_clk $end
$var reg 1 ) FT_OE $end
$var reg 1 2 write_to_dc32_fifo $end
$var reg 1 3 RXF_N $end
$var reg 1 , FR_RXF $end
$var reg 1 + FT_RD $end
$var reg 1 4 OE_N $end
$upscope $end
$scope module bluejay_data0 $end
$var reg 11 5 v_counter $end
$var reg 1 6 next_line_rdy_i $end
$var reg 1 7 new_frame_i $end
$var reg 1 8 end_of_image_reached $end
$var real 1 9 data_i $end
$var reg 1 : sync_o $end
$var real 1 ; data_o $end
$var reg 1 < update_o $end
$var reg 8 = h_counter $end
$var string 3 > state $end
$var reg 8 ? state_timeout_counter $end
$var reg 1 @ get_next_word_o $end
$var reg 1 A clk_i $end
$var reg 1 B invert_o $end
$var reg 1 C get_next_word_cmd $end
$var reg 1 D fifo_empty_i $end
$var reg 1 E data_output_active_cmd $end
$var reg 1 ! reset_i $end
$var reg 1 F valid_o $end
$upscope $end
$upscope $end

$enddefinitions $end
$dumpvars
0!
s0 "
1#
1$
0%
0&
s0 '
0(
1)
1*
1+
1,
0-
0.
s0 /
00
01
02
03
04
b00000000000 5
06
07
08
s0 9
0:
s0 ;
0<
b00000000 =
sIDLE >
b00000000 ?
0@
0A
0B
0C
0D
0E
0F
$end
#5
1(
#10
0(
#15
1(
#20
0(
1!
#25
1(
0!
#30
0(
#35
1(
#40
0(
#45
1(
#50
0(
#55
1(
#60
0(
#65
1(
#70
0(
#75
1(
#80
0(
#85
1(
#90
0(
#95
1(
#100
0(
#105
1(
#110
0(
#115
1(
#120
0(
#125
1(
#130
0(
#135
1(
#140
0(
#145
1(
#150
0(
#155
1(
#160
0(
#165
1(
#170
0(
#175
1(
#180
0(
#185
1(
#190
0(
#195
1(
#200
0(
#205
1(
#210
0(
#215
1(
#220
0(
#225
1(
#230
0(
#235
1(
#240
0(
#245
1(
#250
0(
#255
1(
#260
0(
#265
1(
#270
0(
#275
1(
#280
0(
#285
1(
#290
0(
#295
1(
#300
0(
#305
1(
#310
0(
#315
1(
#320
0(
#325
1(
#330
0(
#335
1(
#340
0(
#345
1(
#350
0(
#355
1(
#360
0(
#365
1(
#370
0(
#375
1(
#380
0(
#385
1(
#390
0(
#395
1(
#400
0(
#405
1(
#410
0(
#415
1(
#420
0(
#425
1(
#430
0(
#435
1(
#440
0(
#445
1(
#450
0(
#455
1(
#460
0(
#465
1(
#470
0(
#475
1(
#480
0(
#485
1(
#490
0(
#495
1(
#500
0(
#505
1(
#510
0(
#515
1(
#520
0(
#525
1(
#530
0(
#535
1(
#540
0(
#545
1(
#550
0(
#555
1(
#560
0(
#565
1(
#570
0(
#575
1(
#580
0(
#585
1(
#590
0(
#595
1(
#600
0(
#605
1(
#610
0(
#615
1(
#620
0(
#625
1(
#630
0(
#635
1(
#640
0(
#645
1(
#650
0(
#655
1(
#660
0(
#665
1(
#670
0(
#675
1(
#680
0(
#685
1(
#690
0(
#695
1(
#700
0(
#705
1(
#710
0(
#715
1(
#720
0(
#725
1(
#730
0(
#735
1(
#740
0(
#745
1(
#750
0(
#755
1(
#760
0(
#765
1(
#770
0(
#775
1(
#780
0(
#785
1(
#790
0(
#795
1(
#800
0(
#805
1(
#810
0(
#815
1(
#820
0(
#825
1(
#830
0(
#835
1(
#840
0(
#845
1(
#850
0(
#855
1(
#860
0(
#865
1(
#870
0(
#875
1(
#880
0(
#885
1(
#890
0(
#895
1(
#900
0(
#905
1(
#910
0(
#915
1(
#920
0(
#925
1(
#930
0(
#935
1(
#940
0(
#945
1(
#950
0(
#955
1(
#960
0(
#965
1(
#970
0(
#975
1(
#980
0(
#985
1(
#990
0(
#995
1(
#1000
0(
#1005
1(
#1010
0(
#1015
1(
#1020
0(
#1025
1(
#1030
0(
#1035
1(
#1040
0(
#1045
1(
s4294967295 "
1&
s4294967295 /
#1050
0(
#1055
1(
s0 "
s0 /
#1060
0(
#1065
1(
s4294967295 "
0,
13
s4294967295 /
#1070
0(
#1075
1(
s0 "
11
14
s0 /
0)
#1080
0(
#1085
1(
s4294967295 "
10
12
s4294967295 /
1.
0+
#1090
0(
#1095
1(
s0 "
s4294967295 '
s0 /
#1100
0(
#1105
1(
s4294967295 "
s0 '
s4294967295 /
#1110
0(
#1115
1(
s0 "
s4294967295 '
s0 /
#1120
0(
#1125
1(
s4294967295 "
s0 '
s4294967295 /
#1130
0(
#1135
1(
s0 "
s4294967295 '
s0 /
#1140
0(
#1145
1(
s4294967295 "
s0 '
s4294967295 /
#1150
0(
#1155
1(
s0 "
s4294967295 '
s0 /
#1160
0(
#1165
1(
s4294967295 "
s0 '
s4294967295 /
#1170
0(
#1175
1(
s0 "
s4294967295 '
s0 /
#1180
0(
#1185
1(
s4294967295 "
s0 '
s4294967295 /
#1190
0(
#1195
1(
s0 "
s4294967295 '
s0 /
#1200
0(
#1205
1(
s4294967295 "
s0 '
s4294967295 /
#1210
0(
#1215
1(
s0 "
s4294967295 '
s0 /
#1220
0(
#1225
1(
s4294967295 "
s0 '
s4294967295 /
#1230
0(
#1235
1(
s0 "
s4294967295 '
s0 /
#1240
0(
#1245
1(
s4294967295 "
s0 '
s4294967295 /
#1250
0(
#1255
1(
s0 "
s4294967295 '
s0 /
#1260
0(
#1265
1(
s4294967295 "
s0 '
s4294967295 /
#1270
0(
#1275
1(
s0 "
s4294967295 '
s0 /
#1280
0(
#1285
1(
s4294967295 "
s0 '
s4294967295 /
#1290
0(
#1295
1(
s0 "
s4294967295 '
s0 /
#1300
0(
#1305
1(
s4294967295 "
s0 '
s4294967295 /
#1310
0(
#1315
1(
s0 "
s4294967295 '
s0 /
#1320
0(
#1325
1(
s4294967295 "
s0 '
s4294967295 /
#1330
0(
#1335
1(
s0 "
s4294967295 '
s0 /
#1340
0(
#1345
1(
s4294967295 "
s0 '
s4294967295 /
#1350
0(
#1355
1(
s0 "
s4294967295 '
s0 /
#1360
0(
#1365
1(
s4294967295 "
s0 '
s4294967295 /
#1370
0(
#1375
1(
s0 "
s4294967295 '
s0 /
#1380
0(
#1385
1(
s4294967295 "
s0 '
s4294967295 /
#1390
0(
#1395
1(
s0 "
s4294967295 '
s0 /
#1400
0(
#1405
1(
s4294967295 "
s0 '
s4294967295 /
#1410
0(
#1415
1(
s0 "
s4294967295 '
s0 /
#1420
0(
#1425
1(
s4294967295 "
s0 '
s4294967295 /
#1430
0(
#1435
1(
s0 "
s4294967295 '
s0 /
#1440
0(
0&
#1445
1(
s0 '
#1450
0(
#1455
1(
s4294967295 '
#1460
0(
#1465
1(
s0 '
1,
03
#1470
0(
#1475
1(
01
00
s4294967295 '
02
04
0.
1)
1+
