myhdl_dev/src/my_hdl/bluejay_data_tb.1582555152.705345.vcd
$date
    Mon Feb 24 14:39:12 2020
$end
$version
    MyHDL 0.11
$end
$timescale
    1ns
$end

$scope module bluejay_data_tb $end
$var real 1 ! data_i $end
$var real 1 " data_rdy_i $end
$var real 1 # data_o $end
$var real 1 $ sync_o $end
$var real 1 % clk_i $end
$scope module bluejay_data0 $end
$var real 1 " data_rdy_i $end
$var real 1 % clk_i $end
$var real 1 $ sync_o $end
$var real 1 ! data_i $end
$var real 1 # data_o $end
$upscope $end
$upscope $end

$enddefinitions $end
$dumpvars
s0 !
s0 "
s0 #
s0 $
s0 %
$end
#20
sTrue %
#40
sFalse %
#60
sTrue %
#80
sFalse %
#100
sTrue %
#120
sFalse %
#140
sTrue %
#160
sFalse %
#180
sTrue %
#200
sFalse %
#220
sTrue %
#240
sFalse %
#260
sTrue %
#280
sFalse %
#300
sTrue %
#320
sFalse %
#340
sTrue %
#360
sFalse %
#380
sTrue %
#400
sFalse %
#420
sTrue %
#440
sFalse %
#460
sTrue %
#480
sFalse %
#500
sTrue %
#520
sFalse %
#540
sTrue %
#560
sFalse %
#580
sTrue %
#600
sFalse %
#620
sTrue %
#640
sFalse %
#660
sTrue %
#680
sFalse %
#700
sTrue %
#720
sFalse %
#740
sTrue %
#760
sFalse %
#780
sTrue %
#800
sFalse %
#820
sTrue %
#840
sFalse %
#860
sTrue %
#880
sFalse %
#900
sTrue %
#920
sFalse %
#940
sTrue %
#960
sFalse %
#980
sTrue %
#1000
sFalse %
#1020
sTrue %
#1040
sFalse %
#1060
sTrue %
#1080
sFalse %
#1100
sTrue %
#1120
sFalse %
#1140
sTrue %
#1160
sFalse %
#1180
sTrue %
#1200
sFalse %
#1220
sTrue %
#1240
sFalse %
#1260
sTrue %
#1280
sFalse %
#1300
sTrue %
#1320
sFalse %
#1340
sTrue %
#1360
sFalse %
#1380
sTrue %
#1400
sFalse %
#1420
sTrue %
#1440
sFalse %
#1460
sTrue %
#1480
sFalse %
#1500
sTrue %
#1520
sFalse %
#1540
sTrue %
#1560
sFalse %
#1580
sTrue %
#1600
sFalse %
#1620
sTrue %
#1640
sFalse %
#1660
sTrue %
#1680
sFalse %
#1700
sTrue %
#1720
sFalse %
#1740
sTrue %
#1760
sFalse %
#1780
sTrue %
#1800
sFalse %
#1820
sTrue %
#1840
sFalse %
#1860
sTrue %
#1880
sFalse %
#1900
sTrue %
#1920
sFalse %
#1940
sTrue %
#1960
sFalse %
#1980
sTrue %
#2000
sFalse %
