myhdl_dev/src/my_hdl/bluejay_data_tb.1582631330.3901608.vcd
$date
    Tue Feb 25 11:48:50 2020
$end
$version
    MyHDL 0.11
$end
$timescale
    1ns
$end

$scope module bluejay_data_tb $end
$var string 2 ! state $end
$var reg 32 " data_i $end
$var reg 1 # fifo_empty_i $end
$var reg 1 $ get_next_word_o $end
$var reg 32 % data_o $end
$var reg 1 & sync_o $end
$var reg 1 ' valid_o $end
$var reg 1 ( update_o $end
$var reg 1 ) invert_o $end
$var reg 1 * full $end
$var reg 1 + clk_i $end
$var reg 32 , din $end
$var reg 1 - next_line_rdy_i $end
$var reg 1 . reset_i $end
$var reg 1 / we $end
$scope module fifo21 $end
$var reg 32 " dout $end
$var reg 32 , din $end
$var reg 1 $ re $end
$var reg 1 / we $end
$var reg 1 # empty $end
$var reg 1 * full $end
$var reg 1 + clk $end
$scope module args $end
$var real 1 0 args(0) $end
$var real 1 1 args(1) $end
$var real 1 2 args(2) $end
$var real 1 3 args(3) $end
$var real 1 4 args(4) $end
$upscope $end
$upscope $end
$scope module bluejay_data0 $end
$var reg 1 + clk_i $end
$var reg 1 ) invert_o $end
$var reg 1 5 end_of_image_reached $end
$var real 1 6 h_counter $end
$var real 1 7 v_counter $end
$var reg 32 " data_i $end
$var reg 32 % data_o $end
$var reg 1 # fifo_empty_i $end
$var reg 1 $ get_next_word_o $end
$var reg 1 - next_line_rdy_i $end
$var reg 1 . reset_i $end
$var string 2 ! state $end
$var reg 1 & sync_o $end
$var reg 1 ( update_o $end
$var reg 1 ' valid_o $end
$upscope $end
$upscope $end

$enddefinitions $end
$dumpvars
sIDLE !
b00000000000000000000000000000000 "
0#
0$
b00000000000000000000000000000000 %
0&
0'
0(
0)
0*
0+
b00000000000000000000000000000000 ,
0-
0.
0/
s0 0
s0 1
s0 2
s0 3
s0 4
05
s0x0 6
s0x0 7
$end
1.
#10
1+
1#
0.
#20
0+
#30
1+
#40
0+
#50
1+
#60
0+
#70
1+
#80
0+
#90
1+
#100
0+
#110
1+
#120
0+
#130
1+
#140
0+
#150
1+
#160
0+
#170
1+
#180
0+
#190
1+
#200
0+
#210
1+
#220
0+
#230
1+
#240
0+
#250
1+
#260
0+
#270
1+
#280
0+
#290
1+
#300
0+
#310
1+
#320
0+
#330
1+
#340
0+
#350
1+
#360
0+
#370
1+
#380
0+
#390
1+
#400
0+
#410
1+
#420
0+
#430
1+
#440
0+
#450
1+
#460
0+
#470
1+
#480
0+
#490
1+
#500
0+
b00010001000000000000000000000000 ,
1/
#510
1+
0#
#511
0/
#520
0+
b00100001000000000000000000000000 ,
1/
#530
1+
#531
0/
#540
0+
b00110001000000000000000000000000 ,
1/
#550
1+
#551
0/
#560
0+
1-
#570
1+
sLINE_OUT_ENTER !
0-
#571
#580
0+
#590
1+
sLINE_OUT_DATA !
1$
#600
0+
#610
1+
b00110001000000000000000000000000 "
#620
0+
#630
1+
b00110001000000000000000000000000 %
#640
0+
#650
1+
1#
