myhdl_dev/src/my_hdl/bluejay_data_tb.1582566649.6721113.vcd
$date
    Mon Feb 24 17:50:49 2020
$end
$version
    MyHDL 0.11
$end
$timescale
    1ns
$end

$scope module bluejay_data_tb $end
$var reg 1 ! get_next_word_o $end
$var reg 8 " data_o $end
$var reg 1 # sync_o $end
$var reg 1 $ valid_o $end
$var reg 1 % update_o $end
$var reg 1 & invert_o $end
$var reg 1 ' clk_i $end
$var reg 8 ( data_i $end
$var reg 1 ) data_rdy_i $end
$var reg 1 * reset_i $end
$scope module bluejay_data0 $end
$var reg 1 ' clk_i $end
$var reg 1 ! get_next_word_o $end
$var reg 1 & invert_o $end
$var reg 8 ( data_i $end
$var reg 8 " data_o $end
$var reg 1 ) data_rdy_i $end
$var real 1 + h_counter $end
$var reg 1 * reset_i $end
$var reg 1 # sync_o $end
$var reg 1 % update_o $end
$var real 1 , v_counter $end
$var reg 1 $ valid_o $end
$upscope $end
$upscope $end

$enddefinitions $end
$dumpvars
0!
b00000000 "
0#
0$
0%
0&
0'
b00000000 (
0)
0*
s0x0 +
s0x0 ,
$end
1*
#10
1'
0*
#20
0'
#30
1'
#40
0'
#50
1'
#60
0'
#70
1'
#80
0'
#90
1'
#100
0'
b00010000 (
1)
#110
1'
0)
1$
b00010000 "
s0x1 +
#120
0'
#130
1'
#140
0'
#150
1'
#160
0'
#170
1'
#180
0'
#190
1'
#200
0'
b00100000 (
1)
#210
1'
b00100000 "
s0x2 +
0)
#220
0'
#230
1'
#240
0'
#250
1'
#260
0'
#270
1'
#280
0'
#290
1'
#300
0'
b00110000 (
1)
#310
1'
0)
b00110000 "
s0x3 +
#320
0'
#330
1'
#340
0'
#350
1'
#360
0'
#370
1'
#380
0'
#390
1'
#400
0'
b01000000 (
1)
#410
1'
0$
b01000000 "
s0x0 +
s0x1 ,
0)
#420
0'
#430
1'
#440
0'
#450
1'
#460
0'
#470
1'
#480
0'
#490
1'
#500
0'
b01010000 (
1)
#510
1'
0)
1$
b01010000 "
s0x1 +
#520
0'
#530
1'
#540
0'
#550
1'
#560
0'
#570
1'
#580
0'
#590
1'
#600
0'
b01100000 (
1)
#610
1'
b01100000 "
s0x2 +
0)
#620
0'
#630
1'
#640
0'
#650
1'
#660
0'
#670
1'
#680
0'
#690
1'
#700
0'
b01110000 (
1)
#710
1'
0)
b01110000 "
s0x3 +
#720
0'
#730
1'
#740
0'
#750
1'
#760
0'
#770
1'
#780
0'
#790
1'
#800
0'
b10000000 (
1)
#810
1'
0$
b10000000 "
s0x0 +
s0x2 ,
0)
#820
0'
#830
1'
#840
0'
#850
1'
#860
0'
#870
1'
#880
0'
#890
1'
#900
0'
b10010000 (
1)
#910
1'
0)
1$
b10010000 "
s0x1 +
#920
0'
#930
1'
#940
0'
#950
1'
#960
0'
#970
1'
#980
0'
#990
1'
#1000
0'
b10100000 (
1)
#1010
1'
b10100000 "
s0x2 +
0)
#1020
0'
#1030
1'
#1040
0'
#1050
1'
#1060
0'
#1070
1'
#1080
0'
#1090
1'
#1100
0'
b00010000 (
1)
#1110
1'
0)
b00010000 "
s0x3 +
#1120
0'
#1130
1'
#1140
0'
#1150
1'
#1160
0'
#1170
1'
#1180
0'
#1190
1'
#1200
0'
b00100000 (
1)
