myhdl_dev/src/my_hdl/bluejay_data_tb.1582629613.617175.vcd
$date
    Tue Feb 25 11:20:13 2020
$end
$version
    MyHDL 0.11
$end
$timescale
    1ns
$end

$scope module bluejay_data_tb $end
$var string 2 ! state $end
$var reg 32 " data_i $end
$var reg 1 # fifo_empty_i $end
$var reg 1 $ get_next_word_o $end
$var reg 32 % data_o $end
$var reg 1 & sync_o $end
$var reg 1 ' valid_o $end
$var reg 1 ( update_o $end
$var reg 1 ) invert_o $end
$var reg 1 * full $end
$var reg 1 + clk_i $end
$var reg 32 , din $end
$var reg 1 - next_line_rdy_i $end
$var reg 1 . reset_i $end
$var reg 1 / we $end
$scope module bluejay_data0 $end
$var reg 1 + clk_i $end
$var reg 1 # fifo_empty_i $end
$var reg 1 ) invert_o $end
$var reg 1 0 end_of_image_reached $end
$var real 1 1 h_counter $end
$var real 1 2 v_counter $end
$var reg 32 " data_i $end
$var reg 32 % data_o $end
$var reg 1 $ get_next_word_o $end
$var reg 1 - next_line_rdy_i $end
$var reg 1 . reset_i $end
$var string 2 ! state $end
$var reg 1 & sync_o $end
$var reg 1 ( update_o $end
$var reg 1 ' valid_o $end
$upscope $end
$scope module fifo21 $end
$var reg 32 " dout $end
$var reg 32 , din $end
$var reg 1 $ re $end
$var reg 1 / we $end
$var reg 1 # empty $end
$var reg 1 * full $end
$var reg 1 + clk $end
$scope module args $end
$var real 1 3 args(0) $end
$var real 1 4 args(1) $end
$var real 1 5 args(2) $end
$var real 1 6 args(3) $end
$var real 1 7 args(4) $end
$var real 1 8 args(5) $end
$var real 1 9 args(6) $end
$upscope $end
$upscope $end
$upscope $end

$enddefinitions $end
$dumpvars
sIDLE !
b00000000000000000000000000000000 "
0#
0$
b00000000000000000000000000000000 %
0&
0'
0(
0)
0*
0+
b00000000000000000000000000000000 ,
0-
0.
0/
00
s0x0 1
s0x0 2
s0 3
s0 4
s0 5
s0 6
s0 7
s0 8
s0 9
$end
1.
#10
1+
1#
0.
#20
0+
#30
1+
#40
0+
#50
1+
#60
0+
#70
1+
#80
0+
#90
1+
#100
0+
#110
1+
#120
0+
#130
1+
#140
0+
#150
1+
#160
0+
#170
1+
#180
0+
#190
1+
#200
0+
#210
1+
#220
0+
#230
1+
#240
0+
#250
1+
#260
0+
#270
1+
#280
0+
#290
1+
#300
0+
#310
1+
#320
0+
#330
1+
#340
0+
#350
1+
#360
0+
#370
1+
#380
0+
#390
1+
#400
0+
#410
1+
#420
0+
#430
1+
#440
0+
#450
1+
#460
0+
#470
1+
#480
0+
#490
1+
#500
0+
b00010001000000000000000000000000 ,
1/
#510
1+
0#
#511
0/
#520
0+
b00100001000000000000000000000000 ,
1/
#530
1+
#531
0/
#540
0+
b00110001000000000000000000000000 ,
1/
#550
1+
#551
0/
#560
0+
b01000001000000000000000000000000 ,
1/
#570
1+
#571
0/
#580
0+
b01010001000000000000000000000000 ,
1/
#590
1+
#591
0/
#600
0+
b01100001000000000000000000000000 ,
1/
#610
1+
#611
0/
#620
0+
b01110001000000000000000000000000 ,
1/
#630
1+
#631
0/
#640
0+
b10000001000000000000000000000000 ,
1/
#650
1+
#651
0/
#660
0+
b10010001000000000000000000000000 ,
1/
#670
1+
#671
0/
#680
0+
b10100001000000000000000000000000 ,
1/
#690
1+
#691
0/
#700
0+
b00010010000000000000000000000000 ,
1/
#710
1+
#711
0/
#720
0+
b00100010000000000000000000000000 ,
1/
#730
1+
#731
0/
#740
0+
b00110010000000000000000000000000 ,
1/
#750
1+
#751
0/
#760
0+
b01000010000000000000000000000000 ,
1/
#770
1+
#771
0/
#780
0+
b01010010000000000000000000000000 ,
1/
#790
1+
#791
0/
#800
0+
b01100010000000000000000000000000 ,
1/
#810
1+
#811
0/
#820
0+
b01110010000000000000000000000000 ,
1/
#830
1+
#831
0/
#840
0+
b10000010000000000000000000000000 ,
1/
#850
1+
#851
0/
#860
0+
b10010010000000000000000000000000 ,
1/
#870
1+
#871
0/
#880
0+
b10100010000000000000000000000000 ,
1/
#890
1+
#891
0/
#900
0+
b00010010000000000000000000000000 ,
1/
#910
1+
#911
0/
#920
0+
b00100011000000000000000000000000 ,
1/
#930
1+
#931
0/
#940
0+
b00110011000000000000000000000000 ,
1/
#950
1+
#951
0/
#960
0+
b01000011000000000000000000000000 ,
1/
#970
1+
#971
0/
#980
0+
b01010011000000000000000000000000 ,
1/
#990
1+
#991
0/
#1000
0+
b01100011000000000000000000000000 ,
1/
#1010
1+
#1011
0/
#1020
0+
b01110011000000000000000000000000 ,
1/
#1030
1+
#1031
0/
#1040
0+
b10000011000000000000000000000000 ,
1/
#1050
1+
#1051
0/
#1060
0+
b10010011000000000000000000000000 ,
1/
#1070
1+
#1071
0/
#1080
0+
b10100011000000000000000000000000 ,
1/
#1090
1+
#1091
0/
#1100
0+
b00010100000000000000000000000000 ,
1/
#1110
1+
#1111
0/
#1120
0+
b00100100000000000000000000000000 ,
1/
#1130
1+
#1131
0/
#1140
0+
b00110100000000000000000000000000 ,
1/
#1150
1+
#1151
0/
#1160
0+
b01000100000000000000000000000000 ,
1/
#1170
1+
#1171
0/
#1180
0+
b01010100000000000000000000000000 ,
1/
#1190
1+
#1191
0/
#1200
0+
b01100100000000000000000000000000 ,
1/
#1210
1+
#1211
0/
#1220
0+
b01110100000000000000000000000000 ,
1/
#1230
1+
#1231
0/
#1240
0+
b10000100000000000000000000000000 ,
1/
#1250
1+
#1251
0/
#1260
0+
b10010100000000000000000000000000 ,
1/
#1270
1+
#1271
0/
#1280
0+
b10100100000000000000000000000000 ,
1/
#1290
1+
#1291
0/
#1300
0+
1-
#1310
1+
0-
sLINE_OUT_ENTER !
1$
#1311
#1320
0+
0$
#1330
1+
1$
sLINE_OUT_DATA !
#1340
0+
0$
