myhdl_dev/src/my_hdl/bluejay_datapath_tb.1583425611.82.vcd
$date
    Thu Mar  5 16:26:50 2020
$end
$version
    MyHDL 0.11
$end
$timescale
    1ns
$end

$scope module bluejay_datapath_tb $end
$var reg 1 ! reset_all $end
$var reg 1 " GPIO0 $end
$var reg 1 # GPIO1 $end
$var reg 1 $ WR_N $end
$var reg 1 % TXE_N $end
$var reg 1 & new_frame_i $end
$var reg 1 ' clk_100 $end
$var reg 1 ( RD_N $end
$var reg 1 ) clk_i $end
$var real 1 * SIM_DATA_IN $end
$var reg 1 + SIM_DATA_IN_WR $end
$var reg 1 , RESET_N $end
$var real 1 - usb_data_o $end
$var reg 1 . RX_F $end
$var reg 1 / OE_N $end
$scope module usb_fifo0 $end
$var reg 1 " GPIO0 $end
$var reg 1 # GPIO1 $end
$var reg 1 $ WR_N $end
$var reg 1 ' CLK $end
$var reg 1 % TXE_N $end
$var reg 1 ( RD_N $end
$var reg 1 , RESET_N $end
$var reg 1 + SIM_DATA_IN_WR $end
$var real 1 * SIM_DATA_IN $end
$var real 1 - DATA $end
$var reg 1 . RX_F $end
$var reg 1 / OE_N $end
$upscope $end
$scope module usb_to_bluejay_if0 $end
$var reg 1 / fifo_output_enable_o $end
$var reg 1 0 next_line_rdy_o $end
$var reg 1 " next_line_rdy_i $end
$var reg 1 1 get_next_word_i $end
$var real 1 - data_i $end
$var reg 1 # next_frame_rdy_i $end
$var real 1 2 data_o $end
$var reg 1 3 next_frame_rdy_o $end
$var reg 1 , reset_o $end
$var reg 1 ) clk_o $end
$var reg 1 ' clk_i $end
$var reg 1 . fifo_empty_i $end
$var reg 1 ! reset_i $end
$var reg 1 ( get_next_word_o $end
$var reg 1 4 fifo_empty_o $end
$upscope $end
$scope module bluejay_data0 $end
$var reg 11 5 v_counter $end
$var reg 1 0 next_line_rdy_i $end
$var reg 1 & new_frame_i $end
$var reg 1 6 end_of_image_reached $end
$var real 1 2 data_i $end
$var reg 1 7 sync_o $end
$var real 1 8 data_o $end
$var reg 1 9 update_o $end
$var reg 8 : h_counter $end
$var string 3 ; state $end
$var reg 8 < state_timeout_counter $end
$var reg 1 1 get_next_word_o $end
$var reg 1 ) clk_i $end
$var reg 1 = invert_o $end
$var reg 1 > get_next_word_cmd $end
$var reg 1 4 fifo_empty_i $end
$var reg 1 ? data_output_active_cmd $end
$var reg 1 ! reset_i $end
$var reg 1 @ valid_o $end
$upscope $end
$upscope $end

$enddefinitions $end
$dumpvars
0!
0"
0#
1$
1%
0&
0'
1(
0)
s0 *
0+
1,
s0 -
1.
1/
00
01
s0 2
03
04
b00000000000 5
06
07
s0 8
09
b00000000 :
sIDLE ;
b00000000 <
0=
0>
0?
0@
$end
#5
1'
0/
1)
#10
0'
0)
#15
1'
1)
#20
0'
0)
1!
0,
#25
1'
1)
0!
1,
#30
0'
0)
#35
1'
1)
#40
0'
0)
#45
1'
1&
1)
b10100000000 5
#50
0'
0)
0&
#55
1'
1)
#60
0'
0)
#65
1'
1)
#70
0'
0)
#75
1'
1)
#80
0'
0)
#85
1'
1)
#90
0'
0)
#95
1'
1)
#100
0'
0)
#105
1'
1)
#110
0'
0)
#115
1'
1)
#120
0'
0)
#125
1'
1)
#130
0'
0)
#135
1'
1)
#140
0'
0)
#145
1'
1)
#150
0'
0)
#155
1'
1)
#160
0'
0)
#165
1'
1)
#170
0'
0)
#175
1'
1)
#180
0'
0)
#185
1'
1)
#190
0'
0)
#195
1'
1)
#200
0'
0)
#205
1'
1)
#210
0'
0)
#215
1'
1)
#220
0'
0)
#225
1'
1)
#230
0'
0)
#235
1'
1)
#240
0'
0)
#245
1'
1)
#250
0'
0)
#255
1'
1)
#260
0'
0)
#265
1'
1)
#270
0'
0)
#275
1'
1)
#280
0'
0)
#285
1'
1)
#290
0'
0)
#295
1'
1)
#300
0'
0)
#305
1'
1)
#310
0'
0)
#315
1'
1)
#320
0'
0)
#325
1'
1)
#330
0'
0)
#335
1'
1)
#340
0'
0)
#345
1'
1)
#350
0'
0)
#355
1'
1)
#360
0'
0)
#365
1'
1)
#370
0'
0)
#375
1'
1)
#380
0'
0)
#385
1'
1)
#390
0'
0)
#395
1'
1)
#400
0'
0)
#405
1'
1)
#410
0'
0)
#415
1'
1)
#420
0'
0)
#425
1'
1)
#430
0'
0)
#435
1'
1)
#440
0'
0)
#445
1'
1)
#450
0'
0)
#455
1'
1)
#460
0'
0)
#465
1'
1)
#470
0'
0)
#475
1'
1)
#480
0'
0)
#485
1'
1)
#490
0'
0)
#495
1'
1)
#500
0'
0)
#505
1'
1)
#510
0'
0)
#515
1'
1)
#520
0'
0)
#525
1'
1)
#530
0'
0)
#535
1'
1)
#540
0'
0)
#545
1'
1)
#550
0'
0)
#555
1'
1)
#560
0'
0)
#565
1'
1)
#570
0'
0)
#575
1'
1)
#580
0'
0)
#585
1'
1)
#590
0'
0)
#595
1'
1)
#600
0'
0)
#605
1'
1)
#610
0'
0)
#615
1'
1)
#620
0'
0)
#625
1'
1)
#630
0'
0)
#635
1'
1)
#640
0'
0)
#645
1'
1)
#650
0'
0)
#655
1'
1)
#660
0'
0)
#665
1'
1)
#670
0'
0)
#675
1'
1)
#680
0'
0)
#685
1'
1)
#690
0'
0)
#695
1'
1)
#700
0'
0)
#705
1'
1)
#710
0'
0)
#715
1'
1)
#720
0'
0)
#725
1'
1)
#730
0'
0)
#735
1'
1)
#740
0'
0)
#745
1'
1)
#750
0'
0)
#755
1'
1)
#760
0'
0)
#765
1'
1)
#770
0'
0)
#775
1'
1)
#780
0'
0)
#785
1'
1)
#790
0'
0)
#795
1'
1)
#800
0'
0)
#805
1'
1)
#810
0'
0)
#815
1'
1)
#820
0'
0)
#825
1'
1)
#830
0'
0)
#835
1'
1)
#840
0'
0)
#845
1'
1)
#850
0'
0)
#855
1'
1)
#860
0'
0)
#865
1'
1)
#870
0'
0)
#875
1'
1)
#880
0'
0)
#885
1'
1)
#890
0'
0)
#895
1'
1)
#900
0'
0)
#905
1'
1)
#910
0'
0)
#915
1'
1)
#920
0'
0)
#925
1'
1)
#930
0'
0)
#935
1'
1)
#940
0'
0)
#945
1'
1)
#950
0'
0)
#955
1'
1)
#960
0'
0)
#965
1'
1)
#970
0'
0)
#975
1'
1)
#980
0'
0)
#985
1'
1)
#990
0'
0)
#995
1'
1)
#1000
0'
0)
#1005
1'
1)
#1010
0'
0)
#1015
1'
1)
#1020
0'
0)
#1025
1'
1)
#1030
0'
0)
#1035
1'
1)
#1040
0'
0)
#1045
1'
1)
#1050
0'
0)
#1055
1'
1)
s4294967295 *
1+
#1060
0'
0)
#1065
1'
1)
s0 *
#1070
0'
0)
#1075
1'
0.
1)
s4294967295 *
14
#1080
0'
0)
#1085
1'
1/
1)
s0 *
#1090
0'
0)
#1095
1'
1)
s4294967295 *
#1100
0'
0)
#1105
1'
1)
s0 *
#1110
0'
0)
#1115
1'
1)
s4294967295 *
#1120
0'
0)
#1125
1'
1)
s0 *
#1130
0'
0)
#1135
1'
1)
s4294967295 *
#1140
0'
0)
#1145
1'
1)
s0 *
#1150
0'
0)
#1155
1'
1)
s4294967295 *
#1160
0'
0)
#1165
1'
1)
s0 *
#1170
0'
0)
#1175
1'
1)
s4294967295 *
#1180
0'
0)
#1185
1'
1)
s0 *
#1190
0'
0)
#1195
1'
1)
s4294967295 *
#1200
0'
0)
#1205
1'
1)
s0 *
#1210
0'
0)
#1215
1'
1)
s4294967295 *
#1220
0'
0)
#1225
1'
1)
s0 *
#1230
0'
0)
#1235
1'
1)
s4294967295 *
#1240
0'
0)
#1245
1'
1)
s0 *
#1250
0'
0)
#1255
1'
1)
s4294967295 *
#1260
0'
0)
#1265
1'
1)
s0 *
#1270
0'
0)
#1275
1'
1)
s4294967295 *
#1280
0'
0)
#1285
1'
1)
s0 *
#1290
0'
0)
#1295
1'
1)
s4294967295 *
#1300
0'
0)
#1305
1'
1)
s0 *
#1310
0'
0)
#1315
1'
1)
s4294967295 *
#1320
0'
0)
#1325
1'
1)
s0 *
#1330
0'
0)
#1335
1'
1)
s4294967295 *
#1340
0'
0)
#1345
1'
1)
s0 *
#1350
0'
0)
#1355
1'
1)
s4294967295 *
#1360
0'
0)
#1365
1'
1)
s0 *
#1370
0'
0)
#1375
1'
1)
s4294967295 *
#1380
0'
0)
#1385
1'
1)
s0 *
#1390
0'
0)
#1395
1'
1)
s4294967295 *
#1400
0'
0)
#1405
1'
1)
s0 *
#1410
0'
0)
#1415
1'
1)
s4294967295 *
#1420
0'
0)
#1425
1'
1)
s0 *
#1430
0'
0)
#1435
1'
1)
s4294967295 *
#1440
0'
0)
#1445
1'
1)
s0 *
#1450
0'
0)
0+
#1455
1'
1)
#1460
0'
0)
#1465
1'
1)
#1470
0'
0)
#1475
1'
1)
#1480
0'
0)
#1485
1'
1)
#1490
0'
0)
#1495
1'
1)
#1500
0'
0)
#1505
1'
1)
#1510
0'
1"
0)
10
#1515
1'
1)
sLINE_OUT_ENTER ;
1>
11
0(
#1520
0'
0)
0"
00
#1525
1'
1)
1@
b00101000 :
1?
sLINE_OUT_DATA ;
#1530
0'
0)
#1535
1'
1)
b00100111 :
#1540
0'
0)
#1545
1'
1)
b00100110 :
#1550
0'
0)
#1555
1'
1)
b00100101 :
#1560
0'
0)
#1565
1'
1)
b00100100 :
#1570
0'
0)
#1575
1'
1)
b00100011 :
#1580
0'
0)
#1585
1'
1)
b00100010 :
#1590
0'
0)
#1595
1'
1)
b00100001 :
#1600
0'
0)
#1605
1'
1)
b00100000 :
#1610
0'
0)
#1615
1'
1)
b00011111 :
#1620
0'
0)
#1625
1'
1)
b00011110 :
#1630
0'
0)
#1635
1'
1)
b00011101 :
#1640
0'
0)
#1645
1'
1)
b00011100 :
#1650
0'
0)
#1655
1'
1)
b00011011 :
#1660
0'
0)
#1665
1'
1)
b00011010 :
#1670
0'
0)
#1675
1'
1)
b00011001 :
#1680
0'
0)
#1685
1'
1)
b00011000 :
#1690
0'
0)
#1695
1'
1)
b00010111 :
#1700
0'
0)
#1705
1'
1)
b00010110 :
#1710
0'
0)
#1715
1'
1)
b00010101 :
#1720
0'
0)
#1725
1'
1)
b00010100 :
#1730
0'
0)
#1735
1'
1)
b00010011 :
#1740
0'
0)
#1745
1'
1)
b00010010 :
#1750
0'
0)
#1755
1'
1)
b00010001 :
#1760
0'
0)
#1765
1'
1)
b00010000 :
#1770
0'
0)
#1775
1'
1)
b00001111 :
#1780
0'
0)
#1785
1'
1)
b00001110 :
#1790
0'
0)
#1795
1'
1)
b00001101 :
#1800
0'
0)
#1805
1'
1)
b00001100 :
#1810
0'
0)
#1815
1'
1)
b00001011 :
#1820
0'
0)
#1825
1'
1)
b00001010 :
#1830
0'
0)
#1835
1'
1)
b00001001 :
#1840
0'
0)
#1845
1'
1)
b00001000 :
#1850
0'
0)
#1855
1'
1)
b00000111 :
#1860
0'
0)
#1865
1'
1)
b00000110 :
#1870
0'
0)
#1875
1'
1)
b00000101 :
#1880
0'
0)
#1885
1'
1)
b00000100 :
#1890
0'
0)
#1895
1'
1)
b00000011 :
#1900
0'
0)
#1905
1'
1)
b00000010 :
#1910
0'
0)
#1915
1'
1)
b00000001 :
#1920
0'
0)
#1925
1'
1)
0@
0>
sLINE_OUT_BLANK ;
b00000000 :
0?
b00000100 <
01
1(
#1930
0'
0)
#1935
1'
1)
b00000011 <
#1940
0'
0)
#1945
1'
1)
b00000010 <
#1950
0'
0)
#1955
1'
1)
b00000001 <
#1960
0'
0)
#1965
1'
1)
b00000000 <
b10011111111 5
sIDLE ;
