myhdl_dev/src/my_hdl/bluejay_data_tb.1583262928.61.vcd
$date
    Tue Mar  3 19:15:27 2020
$end
$version
    MyHDL 0.11
$end
$timescale
    1ns
$end

$scope module bluejay_data_tb $end
$var real 1 ! bluejay_data_i $end
$var reg 1 " we $end
$var reg 1 # full $end
$var reg 1 $ next_line_rdy_i $end
$var reg 1 % new_frame_i $end
$var reg 1 & get_next_word_o $end
$var real 1 ' bluejay_data_o $end
$var reg 1 ( sync_o $end
$var reg 1 ) reset_all $end
$var reg 1 * clk_i $end
$var reg 1 + invert_o $end
$var reg 1 , fifo_empty_i $end
$var reg 1 - update_o $end
$var real 1 . fifo_data_i $end
$var reg 1 / valid_o $end
$scope module fifo20 $end
$var reg 1 " we $end
$var reg 1 # full $end
$var real 1 ! dout $end
$var reg 1 * clk $end
$var real 1 . din $end
$var reg 1 & re $end
$var reg 1 , empty $end
$upscope $end
$scope module bluejay_data0 $end
$var reg 11 0 v_counter $end
$var reg 1 $ next_line_rdy_i $end
$var reg 1 % new_frame_i $end
$var reg 1 1 end_of_image_reached $end
$var real 1 ! data_i $end
$var reg 1 ( sync_o $end
$var real 1 ' data_o $end
$var reg 1 - update_o $end
$var reg 8 2 h_counter $end
$var string 3 3 state $end
$var reg 8 4 state_timeout_counter $end
$var reg 1 & get_next_word_o $end
$var reg 1 * clk_i $end
$var reg 1 + invert_o $end
$var reg 1 5 get_next_word_cmd $end
$var reg 1 , fifo_empty_i $end
$var reg 1 6 data_output_active_cmd $end
$var reg 1 ) reset_i $end
$var reg 1 / valid_o $end
$upscope $end
$upscope $end

$enddefinitions $end
$dumpvars
s0 !
0"
0#
0$
0%
0&
s0 '
0(
0)
0*
0+
0,
0-
s0 .
0/
b00000000000 0
01
b00000000 2
sIDLE 3
b00000000 4
05
06
$end
#10
1*
1,
#20
0*
1)
#30
1*
0)
#40
0*
#50
1*
1%
b00000000010 0
#60
0*
0%
#70
1*
#80
0*
#90
1*
#100
0*
#110
1*
#120
0*
#130
1*
#140
0*
#150
1*
#160
0*
#170
1*
#180
0*
#190
1*
#200
0*
#210
1*
#220
0*
#230
1*
#240
0*
#250
1*
#260
0*
#270
1*
#280
0*
#290
1*
#300
0*
#310
1*
#320
0*
#330
1*
#340
0*
#350
1*
#360
0*
#370
1*
#380
0*
#390
1*
#400
0*
#410
1*
#420
0*
#430
1*
#440
0*
#450
1*
#460
0*
#470
1*
#480
0*
#490
1*
#500
0*
#510
1*
#520
0*
#530
1*
#540
0*
#550
1*
#560
0*
#570
1*
#580
0*
#590
1*
#600
0*
#610
1*
#620
0*
#630
1*
#640
0*
#650
1*
#660
0*
#670
1*
#680
0*
#690
1*
#700
0*
#710
1*
#720
0*
#730
1*
#740
0*
#750
1*
#760
0*
#770
1*
#780
0*
#790
1*
#800
0*
#810
1*
#820
0*
#830
1*
#840
0*
#850
1*
#860
0*
#870
1*
#880
0*
#890
1*
#900
0*
#910
1*
#920
0*
#930
1*
#940
0*
#950
1*
#960
0*
#970
1*
#980
0*
#990
1*
#1000
0*
#1010
1*
#1020
0*
#1030
1*
#1040
0*
#1050
1*
#1060
0*
#1070
1*
#1080
0*
#1090
1*
#1100
0*
#1110
1*
#1120
0*
#1130
1*
#1140
0*
#1150
1*
#1160
0*
#1170
1*
#1180
0*
#1190
1*
#1200
0*
#1210
1*
#1220
0*
#1230
1*
#1240
0*
#1250
1*
#1260
0*
#1270
1*
#1280
0*
#1290
1*
#1300
0*
#1310
1*
#1320
0*
#1330
1*
#1340
0*
#1350
1*
#1360
0*
#1370
1*
#1380
0*
#1390
1*
#1400
0*
#1410
1*
#1420
0*
#1430
1*
#1440
0*
#1450
1*
#1460
0*
#1470
1*
#1480
0*
#1490
1*
#1500
0*
#1510
1*
#1520
0*
#1530
1*
#1540
0*
#1550
1*
#1560
0*
#1570
1*
#1580
0*
#1590
1*
#1600
0*
#1610
1*
#1620
0*
#1630
1*
#1640
0*
#1650
1*
#1660
0*
#1670
1*
#1680
0*
#1690
1*
#1700
0*
#1710
1*
#1720
0*
#1730
1*
#1740
0*
#1750
1*
#1760
0*
#1770
1*
#1780
0*
#1790
1*
#1800
0*
#1810
1*
#1820
0*
#1830
1*
#1840
0*
#1850
1*
#1860
0*
#1870
1*
#1880
0*
#1890
1*
#1900
0*
#1910
1*
#1920
0*
#1930
1*
#1940
0*
#1950
1*
#1960
0*
#1970
1*
#1980
0*
#1990
1*
#2000
0*
#2010
1*
#2020
0*
#2030
1*
#2040
0*
#2050
1*
#2060
0*
#2070
1*
#2080
0*
#2090
1*
#2100
0*
#2110
1*
#2120
0*
#2130
1*
#2140
0*
#2150
1*
#2160
0*
#2170
1*
#2180
0*
#2190
1*
#2200
0*
#2210
1*
#2220
0*
#2230
1*
#2240
0*
#2250
1*
#2260
0*
#2270
1*
#2280
0*
#2290
1*
#2300
0*
#2310
1*
#2320
0*
#2330
1*
#2340
0*
#2350
1*
#2360
0*
#2370
1*
#2380
0*
#2390
1*
#2400
0*
#2410
1*
#2420
0*
#2430
1*
#2440
0*
#2450
1*
#2460
0*
#2470
1*
#2480
0*
#2490
1*
#2500
0*
#2510
1*
#2520
0*
#2530
1*
#2540
0*
#2550
1*
#2560
0*
#2570
1*
#2580
0*
#2590
1*
#2600
0*
#2610
1*
#2620
0*
#2630
1*
#2640
0*
#2650
1*
#2660
0*
#2670
1*
#2680
0*
#2690
1*
#2700
0*
#2710
1*
#2720
0*
#2730
1*
#2740
0*
#2750
1*
#2760
0*
#2770
1*
#2780
0*
#2790
1*
#2800
0*
#2810
1*
#2820
0*
#2830
1*
#2840
0*
#2850
1*
#2860
0*
#2870
1*
#2880
0*
#2890
1*
#2900
0*
#2910
1*
#2920
0*
#2930
1*
#2940
0*
#2950
1*
#2960
0*
#2970
1*
#2980
0*
#2990
1*
#3000
0*
#3010
1*
#3020
0*
#3030
1*
#3040
0*
#3050
1*
#3060
0*
#3070
1*
#3080
0*
#3090
1*
#3100
0*
#3110
1*
#3120
0*
#3130
1*
#3140
0*
#3150
1*
#3160
0*
#3170
1*
#3180
0*
#3190
1*
#3200
0*
#3210
1*
#3220
0*
#3230
1*
#3240
0*
#3250
1*
#3260
0*
#3270
1*
#3280
0*
#3290
1*
#3300
0*
#3310
1*
#3320
0*
#3330
1*
#3340
0*
#3350
1*
#3360
0*
#3370
1*
#3380
0*
#3390
1*
#3400
0*
#3410
1*
#3420
0*
#3430
1*
#3440
0*
#3450
1*
#3460
0*
#3470
1*
#3480
0*
#3490
1*
#3500
0*
#3510
1*
#3520
0*
#3530
1*
#3540
0*
#3550
1*
#3560
0*
#3570
1*
#3580
0*
#3590
1*
#3600
0*
#3610
1*
#3620
0*
#3630
1*
#3640
0*
#3650
1*
#3660
0*
#3670
1*
#3680
0*
#3690
1*
#3700
0*
#3710
1*
#3720
0*
#3730
1*
#3740
0*
#3750
1*
#3760
0*
#3770
1*
#3780
0*
#3790
1*
#3800
0*
#3810
1*
#3820
0*
#3830
1*
#3840
0*
#3850
1*
#3860
0*
#3870
1*
#3880
0*
#3890
1*
#3900
0*
#3910
1*
#3920
0*
#3930
1*
#3940
0*
#3950
1*
#3960
0*
#3970
1*
#3980
0*
#3990
1*
#4000
0*
#4010
1*
#4020
0*
#4030
1*
#4040
0*
#4050
1*
#4060
0*
#4070
1*
#4080
0*
#4090
1*
#4100
0*
#4110
1*
#4120
0*
#4130
1*
#4140
0*
#4150
1*
#4160
0*
#4170
1*
#4180
0*
#4190
1*
#4200
0*
#4210
1*
#4220
0*
#4230
1*
#4240
0*
#4250
1*
#4260
0*
#4270
1*
#4280
0*
#4290
1*
#4300
0*
#4310
1*
#4320
0*
#4330
1*
#4340
0*
#4350
1*
#4360
0*
#4370
1*
#4380
0*
#4390
1*
#4400
0*
#4410
1*
#4420
0*
#4430
1*
#4440
0*
#4450
1*
#4460
0*
#4470
1*
#4480
0*
#4490
1*
#4500
0*
#4510
1*
#4520
0*
#4530
1*
#4540
0*
#4550
1*
#4560
0*
#4570
1*
#4580
0*
#4590
1*
#4600
0*
#4610
1*
#4620
0*
#4630
1*
#4640
0*
#4650
1*
#4660
0*
#4670
1*
#4680
0*
#4690
1*
#4700
0*
#4710
1*
#4720
0*
#4730
1*
#4740
0*
#4750
1*
#4760
0*
#4770
1*
#4780
0*
#4790
1*
#4800
0*
#4810
1*
#4820
0*
#4830
1*
#4840
0*
#4850
1*
#4860
0*
#4870
1*
#4880
0*
#4890
1*
#4900
0*
#4910
1*
#4920
0*
#4930
1*
#4940
0*
#4950
1*
#4960
0*
#4970
1*
#4980
0*
#4990
1*
#5000
0*
#5010
1*
#5020
0*
#5030
1*
#5040
0*
#5050
1*
#5060
0*
#5070
1*
#5080
0*
s285212672 .
1"
#5090
1*
0"
0,
#5100
0*
s553648128 .
1"
#5110
1*
0"
#5120
0*
s822083584 .
1"
#5130
1*
0"
#5140
0*
s1090519040 .
1"
#5150
1*
0"
#5160
0*
s1358954496 .
1"
#5170
1*
0"
#5180
0*
s1627389952 .
1"
#5190
1*
0"
#5200
0*
s1895825408 .
1"
#5210
1*
0"
#5220
0*
s2164260864 .
1"
#5230
1*
0"
#5240
0*
s2432696320 .
1"
#5250
1*
0"
#5260
0*
s2701131776 .
1"
#5270
1*
0"
#5280
0*
s301989888 .
1"
#5290
1*
0"
#5300
0*
s570425344 .
1"
#5310
1*
0"
#5320
0*
s838860800 .
1"
#5330
1*
0"
#5340
0*
s1107296256 .
1"
#5350
1*
0"
#5360
0*
s1375731712 .
1"
#5370
1*
0"
#5380
0*
s1644167168 .
1"
#5390
1*
0"
#5400
0*
s1912602624 .
1"
#5410
1*
0"
#5420
0*
s2181038080 .
1"
#5430
1*
0"
#5440
0*
s2449473536 .
1"
#5450
1*
0"
#5460
0*
s2717908992 .
1"
#5470
1*
0"
#5480
0*
s301989888 .
1"
#5490
1*
0"
#5500
0*
s587202560 .
1"
#5510
1*
0"
#5520
0*
s855638016 .
1"
#5530
1*
0"
#5540
0*
s1124073472 .
1"
#5550
1*
0"
#5560
0*
s1392508928 .
1"
#5570
1*
0"
#5580
0*
s1660944384 .
1"
#5590
1*
0"
#5600
0*
s1929379840 .
1"
#5610
1*
0"
#5620
0*
s2197815296 .
1"
#5630
1*
0"
#5640
0*
s2466250752 .
1"
#5650
1*
0"
#5660
0*
s2734686208 .
1"
#5670
1*
0"
#5680
0*
s335544320 .
1"
#5690
1*
0"
#5700
0*
s603979776 .
1"
#5710
1*
0"
#5720
0*
s872415232 .
1"
#5730
1*
0"
#5740
0*
s1140850688 .
1"
#5750
1*
0"
#5760
0*
s1409286144 .
1"
#5770
1*
0"
#5780
0*
s1677721600 .
1"
#5790
1*
0"
#5800
0*
s1946157056 .
1"
#5810
1*
0"
#5820
0*
s2214592512 .
1"
#5830
1*
0"
#5840
0*
s2483027968 .
1"
#5850
1*
0"
#5860
0*
s2751463424 .
1"
#5870
1*
0"
#5880
0*
1$
#5890
1*
0$
sLINE_OUT_ENTER 3
15
#5900
0*
#5910
1*
1/
b00101000 2
16
sLINE_OUT_DATA 3
#5920
0*
#5930
1*
b00100111 2
#5940
0*
#5950
1*
b00100110 2
#5960
0*
#5970
1*
b00100101 2
#5980
0*
#5990
1*
b00100100 2
#6000
0*
#6010
1*
b00100011 2
#6020
0*
#6030
1*
b00100010 2
#6040
0*
#6050
1*
b00100001 2
#6060
0*
#6070
1*
b00100000 2
#6080
0*
#6090
1*
b00011111 2
#6100
0*
#6110
1*
b00011110 2
#6120
0*
#6130
1*
b00011101 2
#6140
0*
#6150
1*
b00011100 2
#6160
0*
#6170
1*
b00011011 2
#6180
0*
#6190
1*
b00011010 2
#6200
0*
#6210
1*
b00011001 2
#6220
0*
#6230
1*
b00011000 2
#6240
0*
#6250
1*
b00010111 2
#6260
0*
#6270
1*
b00010110 2
#6280
0*
#6290
1*
b00010101 2
#6300
0*
#6310
1*
b00010100 2
#6320
0*
#6330
1*
b00010011 2
#6340
0*
#6350
1*
b00010010 2
#6360
0*
#6370
1*
b00010001 2
#6380
0*
#6390
1*
b00010000 2
#6400
0*
#6410
1*
b00001111 2
#6420
0*
#6430
1*
b00001110 2
#6440
0*
#6450
1*
b00001101 2
#6460
0*
#6470
1*
b00001100 2
#6480
0*
#6490
1*
b00001011 2
#6500
0*
#6510
1*
b00001010 2
#6520
0*
#6530
1*
b00001001 2
#6540
0*
#6550
1*
b00001000 2
#6560
0*
#6570
1*
b00000111 2
#6580
0*
#6590
1*
b00000110 2
#6600
0*
#6610
1*
b00000101 2
#6620
0*
#6630
1*
b00000100 2
#6640
0*
#6650
1*
b00000011 2
#6660
0*
#6670
1*
b00000010 2
#6680
0*
#6690
1*
b00000001 2
#6700
0*
#6710
1*
0/
05
sLINE_OUT_BLANK 3
b00000000 2
06
b00000100 4
#6720
0*
#6730
1*
b00000011 4
#6740
0*
#6750
1*
b00000010 4
#6760
0*
#6770
1*
b00000001 4
#6780
0*
#6790
1*
b00000000 4
b00000000001 0
sIDLE 3
